# Fdb version 4
["bibtex main"] 1675167241 "main.aux" "main.bbl" "main" 1675168835 0
  "./main.bib" 1675167035 649 4cee2ef1bcc7fc3371ecbba8189f6ed4 ""
  "./plain-port.bst" 1675165668 19248 8277a512723af8590fe94a88d4160cc8 ""
  "main.aux" 1675168835 2337 a8d0ea75c8c172edf0f19715996ad0c9 "pdflatex"
  (generated)
  "main.bbl"
  "main.blg"
  (rewritten before read)
["pdflatex"] 1675168834 "main.tex" "main.pdf" "main" 1675168835 0
  "/etc/texmf/web2c/texmf.cnf" 1667309821 475 c0e671620eb5563b2130f56340a5fde8 ""
  "/home/sergiosacj/.texlive2022/texmf-var/fonts/pk/ljfour/jknappen/ec/ecbi1440.600pk" 1675167234 52840 927e7819e223d0d8a27ea9dc6ff06ca3 ""
  "/home/sergiosacj/.texlive2022/texmf-var/fonts/pk/ljfour/jknappen/ec/ecbx0700.600pk" 1669493954 17356 e7f54ce9b5741235f3d80794707057ae ""
  "/home/sergiosacj/.texlive2022/texmf-var/fonts/pk/ljfour/jknappen/ec/ecbx0800.600pk" 1669493954 19852 a0c62f94aada2e285853896a426a0369 ""
  "/home/sergiosacj/.texlive2022/texmf-var/fonts/pk/ljfour/jknappen/ec/ecbx1200.600pk" 1669493955 31928 f1fd8f205a427c7f3ddac57d33a7bab9 ""
  "/home/sergiosacj/.texlive2022/texmf-var/fonts/pk/ljfour/jknappen/ec/ecbx1440.600pk" 1668102800 40112 b1b355873d944894135f5df6aab21fc4 ""
  "/home/sergiosacj/.texlive2022/texmf-var/fonts/pk/ljfour/jknappen/ec/ecbx1728.600pk" 1669493956 49076 ef4eea3075e55562e84c437053eea3cb ""
  "/home/sergiosacj/.texlive2022/texmf-var/fonts/pk/ljfour/jknappen/ec/ecrm1000.600pk" 1669493954 23784 ade88194863cf34ce7a356129e023fe6 ""
  "/home/sergiosacj/.texlive2022/texmf-var/fonts/pk/ljfour/jknappen/ec/ecrm1200.600pk" 1668102800 28416 5fdcf83b6d0a28dc3060637747965f1d ""
  "/home/sergiosacj/.texlive2022/texmf-var/fonts/pk/ljfour/jknappen/ec/ecrm1440.600pk" 1669493956 34296 28c717c062f1711d9c7aac1218a9203a ""
  "/home/sergiosacj/.texlive2022/texmf-var/fonts/pk/ljfour/jknappen/ec/ecrm2074.600pk" 1669493957 53712 78ef1d62145734c388f801243c6fe87f ""
  "/home/sergiosacj/.texlive2022/texmf-var/fonts/pk/ljfour/jknappen/ec/ecsl1200.600pk" 1669493955 35040 3f85cb9a025ecf2cb86aa96296b7a30a ""
  "/home/sergiosacj/.texlive2022/texmf-var/fonts/pk/ljfour/jknappen/ec/ecti1200.600pk" 1669493958 39096 acff7ea5017e90892ec55353eccadbd1 ""
  "/home/sergiosacj/.texlive2022/texmf-var/fonts/pk/ljfour/jknappen/ec/tcrm1200.600pk" 1669493955 14040 a891a4f01529e429ff54df6a54364370 ""
  "/usr/share/texlive/texmf-dist/fonts/map/fontname/texfonts.map" 1577235249 3524 cb3e574dea2d1052e39280babc910dc8 ""
  "/usr/share/texlive/texmf-dist/fonts/tfm/jknappen/ec/ecbi1440.tfm" 1136768653 3072 4dda4299ed0d9dcf48c6a8bcfdc499fc ""
  "/usr/share/texlive/texmf-dist/fonts/tfm/jknappen/ec/ecbx0700.tfm" 1136768653 3584 ca0c423beaacd28d53ddce5a826cd558 ""
  "/usr/share/texlive/texmf-dist/fonts/tfm/jknappen/ec/ecbx0800.tfm" 1136768653 3584 269b66e921ba58750c12f7f1c8ea3ebd ""
  "/usr/share/texlive/texmf-dist/fonts/tfm/jknappen/ec/ecbx1200.tfm" 1136768653 3584 402da0b29eafbad07963b1224b222f18 ""
  "/usr/share/texlive/texmf-dist/fonts/tfm/jknappen/ec/ecbx1440.tfm" 1136768653 3584 13049b61b922a28b158a38aeff75ee9b ""
  "/usr/share/texlive/texmf-dist/fonts/tfm/jknappen/ec/ecbx1728.tfm" 1136768653 3584 ad49a18d8515beef6d92d4d3f197d0fd ""
  "/usr/share/texlive/texmf-dist/fonts/tfm/jknappen/ec/ecrm0700.tfm" 1136768653 3584 cf973739aac7ab6247f9150296af7954 ""
  "/usr/share/texlive/texmf-dist/fonts/tfm/jknappen/ec/ecrm0800.tfm" 1136768653 3584 49064b465390a8e316a3c8417a050403 ""
  "/usr/share/texlive/texmf-dist/fonts/tfm/jknappen/ec/ecrm1000.tfm" 1136768653 3584 adb004a0c8e7c46ee66cad73671f37b4 ""
  "/usr/share/texlive/texmf-dist/fonts/tfm/jknappen/ec/ecrm1200.tfm" 1136768653 3584 f80ddd985bd00e29e9a6047ebd9d4781 ""
  "/usr/share/texlive/texmf-dist/fonts/tfm/jknappen/ec/ecrm1440.tfm" 1136768653 3584 3169d30142b88a27d4ab0e3468e963a2 ""
  "/usr/share/texlive/texmf-dist/fonts/tfm/jknappen/ec/ecrm1728.tfm" 1136768653 3584 3c76ccb63eda935a68ba65ba9da29f1a ""
  "/usr/share/texlive/texmf-dist/fonts/tfm/jknappen/ec/ecrm2074.tfm" 1136768653 3584 8e2870ec7aa9776f59654942b0923f51 ""
  "/usr/share/texlive/texmf-dist/fonts/tfm/jknappen/ec/ecsl1200.tfm" 1136768653 3584 36dd7d4b521e95b0a47034c0d524f2c5 ""
  "/usr/share/texlive/texmf-dist/fonts/tfm/jknappen/ec/ecti1200.tfm" 1136768653 3072 8b5a64dc91775463bc95e2d818524028 ""
  "/usr/share/texlive/texmf-dist/fonts/tfm/jknappen/ec/tcrm1200.tfm" 1136768653 1536 74b7293ec3713bb7fdca8dd1bd1f469c ""
  "/usr/share/texlive/texmf-dist/fonts/tfm/public/amsfonts/cmextra/cmex7.tfm" 1246382020 1004 54797486969f23fa377b128694d548df ""
  "/usr/share/texlive/texmf-dist/fonts/tfm/public/amsfonts/cmextra/cmex8.tfm" 1246382020 988 bdf658c3bfc2d96d3c8b02cfc1c94c20 ""
  "/usr/share/texlive/texmf-dist/fonts/tfm/public/amsfonts/symbols/msam10.tfm" 1246382020 916 f87d7c45f9c908e672703b83b72241a3 ""
  "/usr/share/texlive/texmf-dist/fonts/tfm/public/amsfonts/symbols/msam5.tfm" 1246382020 924 9904cf1d39e9767e7a3622f2a125a565 ""
  "/usr/share/texlive/texmf-dist/fonts/tfm/public/amsfonts/symbols/msam7.tfm" 1246382020 928 2dc8d444221b7a635bb58038579b861a ""
  "/usr/share/texlive/texmf-dist/fonts/tfm/public/amsfonts/symbols/msbm10.tfm" 1246382020 908 2921f8a10601f252058503cc6570e581 ""
  "/usr/share/texlive/texmf-dist/fonts/tfm/public/amsfonts/symbols/msbm5.tfm" 1246382020 940 75ac932a52f80982a9f8ea75d03a34cf ""
  "/usr/share/texlive/texmf-dist/fonts/tfm/public/amsfonts/symbols/msbm7.tfm" 1246382020 940 228d6584342e91276bf566bcf9716b83 ""
  "/usr/share/texlive/texmf-dist/fonts/tfm/public/cm/cmex10.tfm" 1136768653 992 662f679a0b3d2d53c1b94050fdaa3f50 ""
  "/usr/share/texlive/texmf-dist/fonts/tfm/public/cm/cmmi12.tfm" 1136768653 1524 4414a8315f39513458b80dfc63bff03a ""
  "/usr/share/texlive/texmf-dist/fonts/tfm/public/cm/cmmi6.tfm" 1136768653 1512 f21f83efb36853c0b70002322c1ab3ad ""
  "/usr/share/texlive/texmf-dist/fonts/tfm/public/cm/cmmi8.tfm" 1136768653 1520 eccf95517727cb11801f4f1aee3a21b4 ""
  "/usr/share/texlive/texmf-dist/fonts/tfm/public/cm/cmr12.tfm" 1136768653 1288 655e228510b4c2a1abe905c368440826 ""
  "/usr/share/texlive/texmf-dist/fonts/tfm/public/cm/cmr6.tfm" 1136768653 1300 b62933e007d01cfd073f79b963c01526 ""
  "/usr/share/texlive/texmf-dist/fonts/tfm/public/cm/cmr8.tfm" 1136768653 1292 21c1c5bfeaebccffdb478fd231a0997d ""
  "/usr/share/texlive/texmf-dist/fonts/tfm/public/cm/cmsy10.tfm" 1136768653 1124 6c73e740cf17375f03eec0ee63599741 ""
  "/usr/share/texlive/texmf-dist/fonts/tfm/public/cm/cmsy6.tfm" 1136768653 1116 933a60c408fc0a863a92debe84b2d294 ""
  "/usr/share/texlive/texmf-dist/fonts/tfm/public/cm/cmsy8.tfm" 1136768653 1120 8b7d695260f3cff42e636090a8002094 ""
  "/usr/share/texlive/texmf-dist/fonts/tfm/public/latex-fonts/lasy6.tfm" 1136768653 520 4889cce2180234b97cad636b6039c722 ""
  "/usr/share/texlive/texmf-dist/fonts/type1/public/amsfonts/cm/cmex10.pfb" 1248133631 30251 6afa5cb1d0204815a708a080681d4674 ""
  "/usr/share/texlive/texmf-dist/fonts/type1/public/amsfonts/cm/cmmi12.pfb" 1248133631 36741 fa121aac0049305630cf160b86157ee4 ""
  "/usr/share/texlive/texmf-dist/fonts/type1/public/amsfonts/cm/cmmi6.pfb" 1248133631 37166 8ab3487cbe3ab49ebce74c29ea2418db ""
  "/usr/share/texlive/texmf-dist/fonts/type1/public/amsfonts/cm/cmmi8.pfb" 1248133631 35469 70d41d2b9ea31d5d813066df7c99281c ""
  "/usr/share/texlive/texmf-dist/fonts/type1/public/amsfonts/cm/cmr12.pfb" 1248133631 32722 d7379af29a190c3f453aba36302ff5a9 ""
  "/usr/share/texlive/texmf-dist/fonts/type1/public/amsfonts/cm/cmr8.pfb" 1248133631 32726 0a1aea6fcd6468ee2cf64d891f5c43c8 ""
  "/usr/share/texlive/texmf-dist/fonts/type1/public/amsfonts/cm/cmsy10.pfb" 1248133631 32569 5e5ddc8df908dea60932f3c484a54c0d ""
  "/usr/share/texlive/texmf-dist/tex/context/base/mkii/supp-pdf.mkii" 1461363279 71627 94eb9990bed73c364d7f53f960cc8c5b ""
  "/usr/share/texlive/texmf-dist/tex/generic/atbegshi/atbegshi.sty" 1575674566 24708 5584a51a7101caf7e6bbf1fc27d8f7b1 ""
  "/usr/share/texlive/texmf-dist/tex/generic/babel-english/english.ldf" 1496785618 7008 9ff5fdcc865b01beca2b0fe4a46231d4 ""
  "/usr/share/texlive/texmf-dist/tex/generic/babel-portuges/brazil.ldf" 1625860693 6591 308dec8ccec5a8d302be8a046d473dd3 ""
  "/usr/share/texlive/texmf-dist/tex/generic/babel/babel.sty" 1666557646 153052 fa634965c272c173d1137800eb4ad0a4 ""
  "/usr/share/texlive/texmf-dist/tex/generic/babel/locale/en/babel-en.ini" 1661803479 3966 caeee5a9e5771d4446aa1ca9015ba1b2 ""
  "/usr/share/texlive/texmf-dist/tex/generic/babel/locale/en/babel-english.tex" 1498512262 336 ed676b5e7dfd862bc78d634f6a973f37 ""
  "/usr/share/texlive/texmf-dist/tex/generic/babel/txtbabel.def" 1643231327 5233 d5e383ed66bf272b71b1a90b596e21c6 ""
  "/usr/share/texlive/texmf-dist/tex/generic/bigintcalc/bigintcalc.sty" 1576625341 40635 c40361e206be584d448876bba8a64a3b ""
  "/usr/share/texlive/texmf-dist/tex/generic/bitset/bitset.sty" 1576016050 33961 6b5c75130e435b2bfdb9f480a09a39f9 ""
  "/usr/share/texlive/texmf-dist/tex/generic/etexcmds/etexcmds.sty" 1576625273 7734 b98cbb34c81f667027c1e3ebdbfce34b ""
  "/usr/share/texlive/texmf-dist/tex/generic/gettitlestring/gettitlestring.sty" 1576625223 8371 9d55b8bd010bc717624922fb3477d92e ""
  "/usr/share/texlive/texmf-dist/tex/generic/iftex/iftex.sty" 1644112042 7237 bdd120a32c8fdb4b433cf9ca2e7cd98a ""
  "/usr/share/texlive/texmf-dist/tex/generic/iftex/ifvtex.sty" 1572645307 1057 525c2192b5febbd8c1f662c9468335bb ""
  "/usr/share/texlive/texmf-dist/tex/generic/infwarerr/infwarerr.sty" 1575499628 8356 7bbb2c2373aa810be568c29e333da8ed ""
  "/usr/share/texlive/texmf-dist/tex/generic/intcalc/intcalc.sty" 1576625065 31769 002a487f55041f8e805cfbf6385ffd97 ""
  "/usr/share/texlive/texmf-dist/tex/generic/kvdefinekeys/kvdefinekeys.sty" 1576878844 5412 d5a2436094cd7be85769db90f29250a6 ""
  "/usr/share/texlive/texmf-dist/tex/generic/ltxcmds/ltxcmds.sty" 1600895880 17859 4409f8f50cd365c68e684407e5350b1b ""
  "/usr/share/texlive/texmf-dist/tex/generic/pdfescape/pdfescape.sty" 1576015897 19007 15924f7228aca6c6d184b115f4baa231 ""
  "/usr/share/texlive/texmf-dist/tex/generic/pdftexcmds/pdftexcmds.sty" 1593379760 20089 80423eac55aa175305d35b49e04fe23b ""
  "/usr/share/texlive/texmf-dist/tex/generic/pgf/basiclayer/pgfcore.code.tex" 1601326656 992 855ff26741653ab54814101ca36e153c ""
  "/usr/share/texlive/texmf-dist/tex/generic/pgf/basiclayer/pgfcorearrows.code.tex" 1601326656 43820 1fef971b75380574ab35a0d37fd92608 ""
  "/usr/share/texlive/texmf-dist/tex/generic/pgf/basiclayer/pgfcoreexternal.code.tex" 1601326656 19324 f4e4c6403dd0f1605fd20ed22fa79dea ""
  "/usr/share/texlive/texmf-dist/tex/generic/pgf/basiclayer/pgfcoregraphicstate.code.tex" 1601326656 6038 ccb406740cc3f03bbfb58ad504fe8c27 ""
  "/usr/share/texlive/texmf-dist/tex/generic/pgf/basiclayer/pgfcoreimage.code.tex" 1601326656 6944 e12f8f7a7364ddf66f93ba30fb3a3742 ""
  "/usr/share/texlive/texmf-dist/tex/generic/pgf/basiclayer/pgfcorelayers.code.tex" 1601326656 4883 42daaf41e27c3735286e23e48d2d7af9 ""
  "/usr/share/texlive/texmf-dist/tex/generic/pgf/basiclayer/pgfcoreobjects.code.tex" 1601326656 2544 8c06d2a7f0f469616ac9e13db6d2f842 ""
  "/usr/share/texlive/texmf-dist/tex/generic/pgf/basiclayer/pgfcorepathconstruct.code.tex" 1601326656 44195 5e390c414de027626ca5e2df888fa68d ""
  "/usr/share/texlive/texmf-dist/tex/generic/pgf/basiclayer/pgfcorepathprocessing.code.tex" 1601326656 17311 2ef6b2e29e2fc6a2fc8d6d652176e257 ""
  "/usr/share/texlive/texmf-dist/tex/generic/pgf/basiclayer/pgfcorepathusage.code.tex" 1601326656 21302 788a79944eb22192a4929e46963a3067 ""
  "/usr/share/texlive/texmf-dist/tex/generic/pgf/basiclayer/pgfcorepatterns.code.tex" 1601326656 9690 01feb7cde25d4293ef36eef45123eb80 ""
  "/usr/share/texlive/texmf-dist/tex/generic/pgf/basiclayer/pgfcorepoints.code.tex" 1601326656 33335 dd1fa4814d4e51f18be97d88bf0da60c ""
  "/usr/share/texlive/texmf-dist/tex/generic/pgf/basiclayer/pgfcorequick.code.tex" 1601326656 2965 4c2b1f4e0826925746439038172e5d6f ""
  "/usr/share/texlive/texmf-dist/tex/generic/pgf/basiclayer/pgfcorerdf.code.tex" 1601326656 5196 2cc249e0ee7e03da5f5f6589257b1e5b ""
  "/usr/share/texlive/texmf-dist/tex/generic/pgf/basiclayer/pgfcorescopes.code.tex" 1601326656 20726 d4c8db1e2e53b72721d29916314a22ea ""
  "/usr/share/texlive/texmf-dist/tex/generic/pgf/basiclayer/pgfcoreshade.code.tex" 1601326656 35249 abd4adf948f960299a4b3d27c5dddf46 ""
  "/usr/share/texlive/texmf-dist/tex/generic/pgf/basiclayer/pgfcoretransformations.code.tex" 1601326656 21989 fdc867d05d228316de137a9fc5ec3bbe ""
  "/usr/share/texlive/texmf-dist/tex/generic/pgf/basiclayer/pgfcoretransparency.code.tex" 1601326656 8893 e851de2175338fdf7c17f3e091d94618 ""
  "/usr/share/texlive/texmf-dist/tex/generic/pgf/frontendlayer/tikz/libraries/tikzlibrarypositioning.code.tex" 1601326656 3937 3f208572dd82c71103831da976d74f1a ""
  "/usr/share/texlive/texmf-dist/tex/generic/pgf/frontendlayer/tikz/libraries/tikzlibrarytopaths.code.tex" 1608933718 11518 738408f795261b70ce8dd47459171309 ""
  "/usr/share/texlive/texmf-dist/tex/generic/pgf/frontendlayer/tikz/tikz.code.tex" 1621110968 186007 6e7dfe0bd57520fd5f91641aa72dcac8 ""
  "/usr/share/texlive/texmf-dist/tex/generic/pgf/libraries/pgflibraryplothandlers.code.tex" 1601326656 32995 ac577023e12c0e4bd8aa420b2e852d1a ""
  "/usr/share/texlive/texmf-dist/tex/generic/pgf/math/pgfint.code.tex" 1557692582 3063 8c415c68a0f3394e45cfeca0b65f6ee6 ""
  "/usr/share/texlive/texmf-dist/tex/generic/pgf/math/pgfmath.code.tex" 1601326656 521 8e224a7af69b7fee4451d1bf76b46654 ""
  "/usr/share/texlive/texmf-dist/tex/generic/pgf/math/pgfmathcalc.code.tex" 1601326656 13391 84d29568c13bdce4133ab4a214711112 ""
  "/usr/share/texlive/texmf-dist/tex/generic/pgf/math/pgfmathfloat.code.tex" 1601326656 104935 184ed87524e76d4957860df4ce0cd1c3 ""
  "/usr/share/texlive/texmf-dist/tex/generic/pgf/math/pgfmathfunctions.base.code.tex" 1601326656 10165 cec5fa73d49da442e56efc2d605ef154 ""
  "/usr/share/texlive/texmf-dist/tex/generic/pgf/math/pgfmathfunctions.basic.code.tex" 1601326656 28178 41c17713108e0795aac6fef3d275fbca ""
  "/usr/share/texlive/texmf-dist/tex/generic/pgf/math/pgfmathfunctions.code.tex" 1601326656 9989 c55967bf45126ff9b061fa2ca0c4694f ""
  "/usr/share/texlive/texmf-dist/tex/generic/pgf/math/pgfmathfunctions.comparison.code.tex" 1601326656 3865 ac538ab80c5cf82b345016e474786549 ""
  "/usr/share/texlive/texmf-dist/tex/generic/pgf/math/pgfmathfunctions.integerarithmetics.code.tex" 1557692582 3177 27d85c44fbfe09ff3b2cf2879e3ea434 ""
  "/usr/share/texlive/texmf-dist/tex/generic/pgf/math/pgfmathfunctions.misc.code.tex" 1621110968 11024 0179538121bc2dba172013a3ef89519f ""
  "/usr/share/texlive/texmf-dist/tex/generic/pgf/math/pgfmathfunctions.random.code.tex" 1608933718 7854 4176998eeefd8745ac6d2d4bd9c98451 ""
  "/usr/share/texlive/texmf-dist/tex/generic/pgf/math/pgfmathfunctions.round.code.tex" 1601326656 3379 781797a101f647bab82741a99944a229 ""
  "/usr/share/texlive/texmf-dist/tex/generic/pgf/math/pgfmathfunctions.trigonometric.code.tex" 1601326656 92405 f515f31275db273f97b9d8f52e1b0736 ""
  "/usr/share/texlive/texmf-dist/tex/generic/pgf/math/pgfmathparser.code.tex" 1601326656 37376 11cd75aac3da1c1b152b2848f30adc14 ""
  "/usr/share/texlive/texmf-dist/tex/generic/pgf/math/pgfmathutil.code.tex" 1601326656 8471 c2883569d03f69e8e1cabfef4999cfd7 ""
  "/usr/share/texlive/texmf-dist/tex/generic/pgf/modules/pgfmodulematrix.code.tex" 1601326656 21201 08d231a2386e2b61d64641c50dc15abd ""
  "/usr/share/texlive/texmf-dist/tex/generic/pgf/modules/pgfmoduleplot.code.tex" 1601326656 16121 346f9013d34804439f7436ff6786cef7 ""
  "/usr/share/texlive/texmf-dist/tex/generic/pgf/modules/pgfmoduleshapes.code.tex" 1621110968 44784 cedaa399d15f95e68e22906e2cc09ef8 ""
  "/usr/share/texlive/texmf-dist/tex/generic/pgf/pgf.revision.tex" 1621110968 465 d68603f8b820ea4a08cce534944db581 ""
  "/usr/share/texlive/texmf-dist/tex/generic/pgf/systemlayer/pgf.cfg" 1601326656 926 2963ea0dcf6cc6c0a770b69ec46a477b ""
  "/usr/share/texlive/texmf-dist/tex/generic/pgf/systemlayer/pgfsys-common-pdf.def" 1601326656 5546 f3f24d7898386cb7daac70bdd2c4d6dc ""
  "/usr/share/texlive/texmf-dist/tex/generic/pgf/systemlayer/pgfsys-pdftex.def" 1601326656 12601 4786e597516eddd82097506db7cfa098 ""
  "/usr/share/texlive/texmf-dist/tex/generic/pgf/systemlayer/pgfsys.code.tex" 1621110968 61163 9b2eefc24e021323e0fc140e9826d016 ""
  "/usr/share/texlive/texmf-dist/tex/generic/pgf/systemlayer/pgfsysprotocol.code.tex" 1601326656 1896 b8e0ca0ac371d74c0ca05583f6313c91 ""
  "/usr/share/texlive/texmf-dist/tex/generic/pgf/systemlayer/pgfsyssoftpath.code.tex" 1601326656 7778 53c8b5623d80238f6a20aa1df1868e63 ""
  "/usr/share/texlive/texmf-dist/tex/generic/pgf/utilities/pgffor.code.tex" 1606168878 23997 a4bed72405fa644418bea7eac2887006 ""
  "/usr/share/texlive/texmf-dist/tex/generic/pgf/utilities/pgfkeys.code.tex" 1621110968 37060 797782f0eb50075c9bc952374d9a659a ""
  "/usr/share/texlive/texmf-dist/tex/generic/pgf/utilities/pgfkeysfiltered.code.tex" 1601326656 37431 9abe862035de1b29c7a677f3205e3d9f ""
  "/usr/share/texlive/texmf-dist/tex/generic/pgf/utilities/pgfrcs.code.tex" 1601326656 4494 af17fb7efeafe423710479858e42fa7e ""
  "/usr/share/texlive/texmf-dist/tex/generic/pgf/utilities/pgfutil-common-lists.tex" 1601326656 7251 fb18c67117e09c64de82267e12cd8aa4 ""
  "/usr/share/texlive/texmf-dist/tex/generic/pgf/utilities/pgfutil-common.tex" 1621110968 29274 e15c5b7157d21523bd9c9f1dfa146b8e ""
  "/usr/share/texlive/texmf-dist/tex/generic/pgf/utilities/pgfutil-latex.def" 1621110968 6825 a2b0ea5b539dda0625e99dd15785ab59 ""
  "/usr/share/texlive/texmf-dist/tex/generic/ulem/ulem.sty" 1578692523 15682 94f55b803e160cf7fb6e4d77d07cfe1d ""
  "/usr/share/texlive/texmf-dist/tex/generic/uniquecounter/uniquecounter.sty" 1576624663 7008 f92eaa0a3872ed622bbf538217cd2ab7 ""
  "/usr/share/texlive/texmf-dist/tex/generic/xkeyval/xkeyval.tex" 1655411236 19231 27205ee17aaa2902aea3e0c07a3cfc65 ""
  "/usr/share/texlive/texmf-dist/tex/generic/xkeyval/xkvutils.tex" 1655411236 7677 9cb1a74d945bc9331f2181c0a59ff34a ""
  "/usr/share/texlive/texmf-dist/tex/generic/xstring/xstring.sty" 1544223003 123 a302f2c651a95033260db60e51527ae8 ""
  "/usr/share/texlive/texmf-dist/tex/generic/xstring/xstring.tex" 1626900402 48190 9b86e8476d1d94df049e99d192261166 ""
  "/usr/share/texlive/texmf-dist/tex/latex/algorithmicx/algorithmicx.sty" 1160617237 26750 ce139c05a983e19ddca355b43e29c395 ""
  "/usr/share/texlive/texmf-dist/tex/latex/algorithmicx/algpseudocode.sty" 1160617237 3457 d9077efe6b74c5a094199256af8d7d9a ""
  "/usr/share/texlive/texmf-dist/tex/latex/algorithms/algorithm.sty" 1251330371 3249 15763257e50278eef5db1952ccde229c ""
  "/usr/share/texlive/texmf-dist/tex/latex/amscls/amsthm.sty" 1591045760 12594 0d51ac3a545aaaa555021326ff22a6cc ""
  "/usr/share/texlive/texmf-dist/tex/latex/amsfonts/amsfonts.sty" 1359763108 5949 3f3fd50a8cc94c3d4cbf4fc66cd3df1c ""
  "/usr/share/texlive/texmf-dist/tex/latex/amsfonts/umsa.fd" 1359763108 961 6518c6525a34feb5e8250ffa91731cff ""
  "/usr/share/texlive/texmf-dist/tex/latex/amsfonts/umsb.fd" 1359763108 961 d02606146ba5601b5645f987c92e6193 ""
  "/usr/share/texlive/texmf-dist/tex/latex/amsmath/amsbsy.sty" 1654720880 2222 78b930a5a6e3dc2ac69b78c2057b94d7 ""
  "/usr/share/texlive/texmf-dist/tex/latex/amsmath/amsgen.sty" 1654720880 4173 c989ee3ced31418e3593916ab26c793a ""
  "/usr/share/texlive/texmf-dist/tex/latex/amsmath/amsmath.sty" 1654720880 88393 1adf6fa3f245270d06e3d4f8910f7fc5 ""
  "/usr/share/texlive/texmf-dist/tex/latex/amsmath/amsopn.sty" 1654720880 4474 f04cd1cc7bd76eb033e6fb12eb6a0d77 ""
  "/usr/share/texlive/texmf-dist/tex/latex/amsmath/amstext.sty" 1654720880 2444 70065bddd85997dc1fd0bb7ae634e5fa ""
  "/usr/share/texlive/texmf-dist/tex/latex/atveryend/atveryend.sty" 1576191570 19336 ce7ae9438967282886b3b036cfad1e4d ""
  "/usr/share/texlive/texmf-dist/tex/latex/auxhook/auxhook.sty" 1576625391 3935 57aa3c3e203a5c2effb4d2bd2efbc323 ""
  "/usr/share/texlive/texmf-dist/tex/latex/base/article.cls" 1667332637 20144 d5ecf0a5140c8d8d8b72cbe86e320eff ""
  "/usr/share/texlive/texmf-dist/tex/latex/base/atbegshi-ltx.sty" 1667332637 3052 30236f0cc243a8651b82240dfd2e8b9d ""
  "/usr/share/texlive/texmf-dist/tex/latex/base/atveryend-ltx.sty" 1667332637 2462 8ce5f9a9c63002f2c1af03c262cf29af ""
  "/usr/share/texlive/texmf-dist/tex/latex/base/fontenc.sty" 1654720880 5119 4ce42f43368f652f9c9522d943cce8e4 ""
  "/usr/share/texlive/texmf-dist/tex/latex/base/ifthen.sty" 1654720880 5319 48d7f3cfa322abd2788e3c09d624b922 ""
  "/usr/share/texlive/texmf-dist/tex/latex/base/inputenc.sty" 1654720880 5048 84b05796b49b69e2d4257d537721c960 ""
  "/usr/share/texlive/texmf-dist/tex/latex/base/size12.clo" 1667332637 8449 c314623021fbddd0180c05345324933c ""
  "/usr/share/texlive/texmf-dist/tex/latex/cbfonts-fd/lgrcmr.fd" 1501364450 2679 d425462515e71491c8b283467c8a268c ""
  "/usr/share/texlive/texmf-dist/tex/latex/changes/changes.sty" 1626465424 29978 a9cfa26176db050060b35afe018a6d31 ""
  "/usr/share/texlive/texmf-dist/tex/latex/enumitem/enumitem.sty" 1561238569 51697 f8f08183cd2080d9d18a41432d651dfb ""
  "/usr/share/texlive/texmf-dist/tex/latex/epstopdf-pkg/epstopdf-base.sty" 1579991033 13886 d1306dcf79a944f6988e688c1785f9ce ""
  "/usr/share/texlive/texmf-dist/tex/latex/etoolbox/etoolbox.sty" 1601931149 46845 3b58f70c6e861a13d927bff09d35ecbc ""
  "/usr/share/texlive/texmf-dist/tex/latex/float/float.sty" 1137110151 6749 16d2656a1984957e674b149555f1ea1d ""
  "/usr/share/texlive/texmf-dist/tex/latex/geometry/geometry.sty" 1578002852 41601 9cf6c5257b1bc7af01a58859749dd37a ""
  "/usr/share/texlive/texmf-dist/tex/latex/graphics-cfg/color.cfg" 1459978653 1213 620bba36b25224fa9b7e1ccb4ecb76fd ""
  "/usr/share/texlive/texmf-dist/tex/latex/graphics-cfg/graphics.cfg" 1465944070 1224 978390e9c2234eab29404bc21b268d1e ""
  "/usr/share/texlive/texmf-dist/tex/latex/graphics-def/pdftex.def" 1663965824 19448 1e988b341dda20961a6b931bcde55519 ""
  "/usr/share/texlive/texmf-dist/tex/latex/graphics/graphics.sty" 1654720880 18387 8f900a490197ebaf93c02ae9476d4b09 ""
  "/usr/share/texlive/texmf-dist/tex/latex/graphics/graphicx.sty" 1654720880 8010 a8d949cbdbc5c983593827c9eec252e1 ""
  "/usr/share/texlive/texmf-dist/tex/latex/graphics/keyval.sty" 1654720880 2671 7e67d78d9b88c845599a85b2d41f2e39 ""
  "/usr/share/texlive/texmf-dist/tex/latex/graphics/mathcolor.ltx" 1667332637 2885 9c645d672ae17285bba324998918efd8 ""
  "/usr/share/texlive/texmf-dist/tex/latex/graphics/trig.sty" 1654720880 4023 293ea1c16429fc0c4cf605f4da1791a9 ""
  "/usr/share/texlive/texmf-dist/tex/latex/greek-fontenc/greek-fontenc.def" 1604525725 19298 d12818183d763921d8699ccb69bc98aa ""
  "/usr/share/texlive/texmf-dist/tex/latex/greek-fontenc/lgrenc.def" 1655323854 41014 e03d43bae43dfada11e45a4eb98d3290 ""
  "/usr/share/texlive/texmf-dist/tex/latex/greek-inputenc/lgrenc.dfu" 1562878851 34178 3a496b86f1e3408e75f433fb56b41726 ""
  "/usr/share/texlive/texmf-dist/tex/latex/hycolor/hycolor.sty" 1580250785 17914 4c28a13fc3d975e6e81c9bea1d697276 ""
  "/usr/share/texlive/texmf-dist/tex/latex/hyperref/hpdftex.def" 1668456740 48272 52af74196dd55e6c486243beada2adcd ""
  "/usr/share/texlive/texmf-dist/tex/latex/hyperref/hyperref.sty" 1668456740 222727 cfc4e76008392378678e691ec73ef8f0 ""
  "/usr/share/texlive/texmf-dist/tex/latex/hyperref/nameref.sty" 1668456740 12947 2cb391007415dfa63f4c5ba1610afddb ""
  "/usr/share/texlive/texmf-dist/tex/latex/hyperref/pd1enc.def" 1668456740 14249 c27c0c7065e940126403e065c08683b6 ""
  "/usr/share/texlive/texmf-dist/tex/latex/hyperref/puenc.def" 1668456740 117125 a8ce97e3b03f76decc5ad7e8d4da3088 ""
  "/usr/share/texlive/texmf-dist/tex/latex/kvoptions/kvoptions.sty" 1655478651 22555 6d8e155cfef6d82c3d5c742fea7c992e ""
  "/usr/share/texlive/texmf-dist/tex/latex/kvsetkeys/kvsetkeys.sty" 1665067230 13815 760b0c02f691ea230f5359c4e1de23a7 ""
  "/usr/share/texlive/texmf-dist/tex/latex/l3backend/l3backend-pdftex.def" 1666901542 30426 f2fb69fcda4dc35ed0b7dee211bce679 ""
  "/usr/share/texlive/texmf-dist/tex/latex/latexconfig/epstopdf-sys.cfg" 1279039959 678 4792914a8f45be57bb98413425e4c7af ""
  "/usr/share/texlive/texmf-dist/tex/latex/letltxmacro/letltxmacro.sty" 1575499565 5766 13a9e8766c47f30327caf893ece86ac8 ""
  "/usr/share/texlive/texmf-dist/tex/latex/pgf/basiclayer/pgf.sty" 1601326656 1090 bae35ef70b3168089ef166db3e66f5b2 ""
  "/usr/share/texlive/texmf-dist/tex/latex/pgf/basiclayer/pgfcore.sty" 1601326656 410 615550c46f918fcbee37641b02a862d9 ""
  "/usr/share/texlive/texmf-dist/tex/latex/pgf/compatibility/pgfcomp-version-0-65.sty" 1601326656 21013 f4ff83d25bb56552493b030f27c075ae ""
  "/usr/share/texlive/texmf-dist/tex/latex/pgf/compatibility/pgfcomp-version-1-18.sty" 1601326656 989 c49c8ae06d96f8b15869da7428047b1e ""
  "/usr/share/texlive/texmf-dist/tex/latex/pgf/frontendlayer/tikz.sty" 1601326656 339 c2e180022e3afdb99c7d0ea5ce469b7d ""
  "/usr/share/texlive/texmf-dist/tex/latex/pgf/math/pgfmath.sty" 1601326656 306 c56a323ca5bf9242f54474ced10fca71 ""
  "/usr/share/texlive/texmf-dist/tex/latex/pgf/systemlayer/pgfsys.sty" 1601326656 443 8c872229db56122037e86bcda49e14f3 ""
  "/usr/share/texlive/texmf-dist/tex/latex/pgf/utilities/pgffor.sty" 1601326656 348 ee405e64380c11319f0e249fed57e6c5 ""
  "/usr/share/texlive/texmf-dist/tex/latex/pgf/utilities/pgfkeys.sty" 1601326656 274 5ae372b7df79135d240456a1c6f2cf9a ""
  "/usr/share/texlive/texmf-dist/tex/latex/pgf/utilities/pgfrcs.sty" 1601326656 325 f9f16d12354225b7dd52a3321f085955 ""
  "/usr/share/texlive/texmf-dist/tex/latex/ragged2e/ragged2e.sty" 1668374732 9416 27e737e108efcc928c66ebcca3933f3f ""
  "/usr/share/texlive/texmf-dist/tex/latex/refcount/refcount.sty" 1576624809 9878 9e94e8fa600d95f9c7731bb21dfb67a4 ""
  "/usr/share/texlive/texmf-dist/tex/latex/rerunfilecheck/rerunfilecheck.sty" 1657483315 9714 ba3194bd52c8499b3f1e3eb91d409670 ""
  "/usr/share/texlive/texmf-dist/tex/latex/subfigure/subfigure.cfg" 1167176009 2062 a0e7d66e09e508f51289a656aec06ed2 ""
  "/usr/share/texlive/texmf-dist/tex/latex/subfigure/subfigure.sty" 1167176009 15188 91281c7ddbccfa54a8e0c3b56ab5aa72 ""
  "/usr/share/texlive/texmf-dist/tex/latex/textgreek/textgreek.sty" 1318545933 9155 724c44018d4e53e78174ee5ba5fbca62 ""
  "/usr/share/texlive/texmf-dist/tex/latex/todonotes/todonotes.sty" 1622837691 20709 ec0ab3eaf79cba9afda8dd45da4e5c5b ""
  "/usr/share/texlive/texmf-dist/tex/latex/tools/calc.sty" 1654720880 10214 de3e21cfc0eccc98ca7f8dac0ef263d2 ""
  "/usr/share/texlive/texmf-dist/tex/latex/tools/indentfirst.sty" 1654720880 1618 6f0598aa81f9ba5cf5d393b4abd3e091 ""
  "/usr/share/texlive/texmf-dist/tex/latex/tools/longtable.sty" 1654720880 12892 af5f5e872a6e322f3e5ba2c881288a56 ""
  "/usr/share/texlive/texmf-dist/tex/latex/truncate/truncate.sty" 1276385404 6657 bba86b8809c129cc7edd6da64c0c1e43 ""
  "/usr/share/texlive/texmf-dist/tex/latex/url/url.sty" 1388531844 12796 8edb7d69a20b857904dd0ea757c14ec9 ""
  "/usr/share/texlive/texmf-dist/tex/latex/xcolor/xcolor.sty" 1655066402 56148 51a9a8571c07b9921892ae11063ae853 ""
  "/usr/share/texlive/texmf-dist/tex/latex/xkeyval/xkeyval.sty" 1655411236 4937 4ce600ce9bd4ec84d0250eb6892fcf4f ""
  "/usr/share/texlive/texmf-dist/tex/latex/zref/zref-base.sty" 1649363507 20785 71a3d72ab517959a6979c27e6176bec1 ""
  "/usr/share/texlive/texmf-dist/tex/latex/zref/zref-titleref.sty" 1649363507 7974 661019241ae4d4b3ac7b54c44c78ccbc ""
  "/usr/share/texlive/texmf-dist/tex/latex/zref/zref-user.sty" 1649363507 2564 73ab0d425ac331ac027ee11ee9d09372 ""
  "/usr/share/texlive/texmf-dist/tex/latex/zref/zref.sty" 1649363507 2424 3bac1fd5b575c85b1d166730dc8e1e20 ""
  "/usr/share/texlive/texmf-dist/web2c/texmf.cnf" 1669588429 39561 34c98e380bf7c7201ee6a7909aff625a ""
  "/usr/share/texmf/web2c/texmf.cnf" 1669588429 39561 34c98e380bf7c7201ee6a7909aff625a ""
  "/var/lib/texmf/fonts/map/pdftex/updmap/pdftex.map" 1674782665 166835 3237b25953d3dec94d74e36efc3a402b ""
  "/var/lib/texmf/web2c/pdftex/pdflatex.fmt" 1674782670 1676744 dd8a8cd64210c5b372005c1bd917ae65 ""
  "main.aux" 1675168835 2337 a8d0ea75c8c172edf0f19715996ad0c9 "pdflatex"
  "main.bbl" 1675167241 489 3cc2adc758c092a9375c60f2cbf40361 "bibtex main"
  "main.out" 1675168835 1031 91cf56475d8e611681526f4f09ebf2ee "pdflatex"
  "main.tex" 1675168833 10200 a692df6526b502835cb5972eda68844e ""
  (generated)
  "main.aux"
  "main.loc"
  "main.log"
  "main.out"
  "main.pdf"
  "main.soc"
  (rewritten before read)
