\begin{thebibliography}{1}

\bibitem{gebser2012conflict}
M~Gebser, B~Kaufmann, e T~Schaub.
\newblock Conflict-driven answer set solving: From theory to practice.
\newblock {\em Artificial Intelligence}, 187:52--89, 2012.

\bibitem{ribas2013}
Bruno~César Ribas, Rubens~Massayuki Suguimoto, Razer~A.N.R. Montaño, Fabiano
  Silva, e Marcos Castilho.
\newblock Pbfvmc: A new pseudo-boolean formulation to virtual-machine
  consolidation.
\newblock pp. 201--206, 2013.

\end{thebibliography}
