\relax 
\providecommand\zref@newlabel[2]{}
\providecommand\babel@aux[2]{}
\@nameuse{bbl@beforestart}
\catcode `"\active 
\providecommand\hyper@newdestlabel[2]{}
\providecommand\HyperFirstAtBeginDocument{\AtBeginDocument}
\HyperFirstAtBeginDocument{\ifx\hyper@anchor\@undefined
\global\let\oldnewlabel\newlabel
\gdef\newlabel#1#2{\newlabelxx{#1}#2}
\gdef\newlabelxx#1#2#3#4#5#6{\oldnewlabel{#1}{{#2}{#3}}}
\AtEndDocument{\ifx\hyper@anchor\@undefined
\let\newlabel\oldnewlabel
\fi}
\fi}
\global\let\hyper@last\relax 
\gdef\HyperFirstAtBeginDocument#1{#1}
\providecommand\HyField@AuxAddToFields[1]{}
\providecommand\HyField@AuxAddToCoFields[2]{}
\citation{ribas2013}
\citation{ribas2013}
\babel@aux{english}{}
\babel@aux{brazil}{}
\@writefile{toc}{\contentsline {section}{\numberline {1}Introdução}{1}{section.1}\protected@file@percent }
\@writefile{toc}{\contentsline {section}{\numberline {2}Metodologia}{1}{section.2}\protected@file@percent }
\citation{gebser2012conflict}
\citation{ribas2013}
\citation{ribas2013}
\@writefile{toc}{\contentsline {section}{\numberline {3}Desenvolvimento}{2}{section.3}\protected@file@percent }
\@writefile{toc}{\contentsline {subsection}{\numberline {3.1}Modelo Base proposto}{2}{subsection.3.1}\protected@file@percent }
\newlabel{eq:objective}{{1}{2}{Modelo Base proposto}{equation.3.1}{}}
\newlabel{eq:hwram}{{2}{2}{Modelo Base proposto}{equation.3.2}{}}
\newlabel{eq:hwcpu}{{3}{2}{Modelo Base proposto}{equation.3.3}{}}
\newlabel{eq:hwramrestr}{{4}{2}{Modelo Base proposto}{equation.3.4}{}}
\newlabel{eq:hwcpurestr}{{5}{2}{Modelo Base proposto}{equation.3.5}{}}
\newlabel{eq:vmminrun}{{6}{2}{Modelo Base proposto}{equation.3.6}{}}
\newlabel{eq:vmmaxrun}{{7}{2}{Modelo Base proposto}{equation.3.7}{}}
\bibdata{main}
\bibcite{gebser2012conflict}{1}
\bibcite{ribas2013}{2}
\bibstyle{plain-port}
\@writefile{toc}{\contentsline {subsection}{\numberline {3.2}Formulação com \textit  {overbooking}}{3}{subsection.3.2}\protected@file@percent }
\@writefile{toc}{\contentsline {section}{\numberline {4}Experimentação Numérica}{3}{section.4}\protected@file@percent }
\@writefile{toc}{\contentsline {section}{\numberline {5}Resultados}{3}{section.5}\protected@file@percent }
\@writefile{toc}{\contentsline {section}{\numberline {6}Conclusão}{3}{section.6}\protected@file@percent }
\gdef \@abspage@last{3}
