c clasp version 3.3.4
c Reading from stdin
c Solving...
c Answer: 1
v x1 x2 x3 -x4 x5 -x6 -x7 -x8 x9 x10 -x11 -x12 -x13 -x14 x15
s SATISFIABLE
c 
c Models         : 1+
c Calls          : 1
c Time           : 0.000s (Solving: 0.00s 1st Model: 0.00s Unsat: 0.00s)
c CPU Time       : 0.000s
